Chapter 45 Twitter textual data: scraping and analyzing | Community Contributions for EDAV Fall 2022 Tues/Thurs
…
45.0.4 3. Analyze data

45.0.4.1 Exploratory analysis

First, let’s look at the frequency of words. For that, we apply group_by()
and summarize() to the tokens dataset to find out the frequency:

capitol_tokens %>%
  group_by(word) %>%
  summarize(occurrence = sum(n)) %>%
  arrange(desc(occurrence))

## # A tibble: 10,402 × 2
##    word      occurrence
##    <list>         <int>
##  1 <chr [1]>       1397
##  2 <chr [1]>       1333
##  3 <chr [1]>       1214
##  4 <chr [1]>       1181
##  5 <chr [1]>        824
##  6 <chr [1]>        603
##  7 <chr [1]>        575
##  8 <chr [1]>        528
##  9 <chr [1]>        506
## 10 <chr [1]>        446
## # … with 10,392 more rows
…
## [1] "tbl_df"     "tbl"        "data.frame"

tokens_words$word <- as.character(tokens_words$word) # turning the tokens into character objects

Below, we can see the list of words by frequency. We notice that there is a
“first tier” of frequency containing the words “storm,”“build,” “trump,” and
“polic” are the 3 most frequent ones. “Storm,” “build,” and “polic” represent word
stems, so words like “building” are within the “build” term, for example.

(tokens_words %>%
  group_by(word) %>%
  arrange(desc(N))
)

## # A tibble: 10,402 × 2
## # Groups:   word [10,402]
##    word        N
##    <chr>   <int>
##  1 storm    1389
##  2 build    1276
##  3 trump    1124
##  4 polic    1092
##  5 support   790
##  6 tri       587
##  7 protest   521
##  8 peopl     514
##  9 us        483
## 10 hill      431
## # … with 10,392 more rows
…
# nrc_positive <- get_sentiments("nrc") %>%
#   filter(sentiment == "positive")
# 
# sheet_write(nrc_positive, ss = "https://docs.google.com/spreadsheets/d/198TOYrrXLtUWA3WpRHrch1CBjml0a-pTEdGPXNxqr3U/edit#gid=890543988", sheet = "nrc_positive")

nrc_positive <- read_sheet("https://docs.google.com/spreadsheets/d/198TOYrrXLtUWA3WpRHrch1CBjml0a-pTEdGPXNxqr3U/edit#gid=890543988", sheet = "nrc_positive")

tokens_words %>%
  inner_join(nrc_positive) %>%
  arrange(desc(N))

## # A tibble: 318 × 3
##    word        N sentiment
##    <chr>   <int> <chr>    
##  1 build    1276 positive 
##  2 elect     264 positive 
##  3 march     158 positive 
##  4 vote      118 positive 
##  5 guard     102 positive 
##  6 speech     81 positive 
##  7 hope       80 positive 
##  8 actual     79 positive 
##  9 good       70 positive 
## 10 protect    68 positive 
## # … with 308 more rows
…
And we can do the same for negative:

# nrc_negative <- get_sentiments("nrc") %>%
#   filter(sentiment == "negative")
# 
# sheet_write(nrc_negative, ss = "https://docs.google.com/spreadsheets/d/198TOYrrXLtUWA3WpRHrch1CBjml0a-pTEdGPXNxqr3U/edit#gid=890543988", sheet = "nrc_negative")
# 
nrc_negative <- read_sheet("https://docs.google.com/spreadsheets/d/198TOYrrXLtUWA3WpRHrch1CBjml0a-pTEdGPXNxqr3U/edit#gid=890543988", sheet = "nrc_negative")

tokens_words %>%
  inner_join(nrc_negative) %>%
  arrange(desc(N))

## # A tibble: 470 × 3
##    word          N sentiment
##    <chr>     <int> <chr>    
##  1 storm      1389 negative 
##  2 breach      248 negative 
##  3 attack      226 negative 
##  4 riot        206 negative 
##  5 violent     171 negative 
##  6 mob         145 negative 
##  7 fight       142 negative 
##  8 vote        118 negative 
##  9 barrier     100 negative 
## 10 terrorist    99 negative 
## # … with 460 more rows
…
